…
### duration by piece

``` r
dur_piece <- dur_tib %>% 
    group_by(piece_no) %>%
    summarize(duration_min = (sum(duration) / 60)) %>% 
    mutate(prop_of_dur = (duration_min/sum(duration_min)),
           duration_min = round(duration_min, digits = 2),
           prop_of_dur = round(prop_of_dur, digits = 3))

dur_piece
```

    ## # A tibble: 21 x 3
    ##    piece_no duration_min prop_of_dur
    ##    <fct>           <dbl>       <dbl>
    ##  1 1                4.91       0.127
    ##  2 2b               2.07       0.054
    ##  3 3a               3.83       0.099
    ##  4 3b               0.49       0.013
    ##  5 4                4.12       0.107
    ##  6 5                3.92       0.102
    ##  7 6a               0.06       0.002
    ##  8 6b               0.13       0.003
    ##  9 6c               0.24       0.006
    ## 10 7a               1.62       0.042
    ## # ... with 11 more rows

resort to find longest pieces

``` r
dur_piece %>% 
    arrange(desc(duration_min))
```

    ## # A tibble: 21 x 3
    ##    piece_no duration_min prop_of_dur
    ##    <fct>           <dbl>       <dbl>
    ##  1 1                4.91       0.127
    ##  2 9                4.82       0.125
    ##  3 4                4.12       0.107
    ##  4 5                3.92       0.102
    ##  5 3a               3.83       0.099
    ##  6 8b               3.12       0.081
    ##  7 14               2.37       0.061
    ##  8 8a               2.32       0.06 
    ##  9 2b               2.07       0.054
    ## 10 10               1.96       0.051
    ## # ... with 11 more rows
…
``` r
dur_piece_lubridate <- dur_piece %>% 
    separate(duration_min, sep = "\\.", into = c("min", "sec")) %>% 
    mutate(min = as.numeric(min),
           sec = as.numeric(sec) # PROBLEM - removes zeros
           ) %>% 
    mutate(sec = round(sec * .6)) %>% 
    mutate(duration = (minutes(min) + seconds(sec)), .keep = "unused") %>% 
    relocate(duration, .after = piece_no)

dur_piece_lubridate
```

    ## # A tibble: 21 x 3
    ##    piece_no duration prop_of_dur
    ##    <fct>    <Period>       <dbl>
    ##  1 1        4M 55S         0.127
    ##  2 2b       2M 4S          0.054
    ##  3 3a       3M 50S         0.099
    ##  4 3b       29S            0.013
    ##  5 4        4M 7S          0.107
    ##  6 5        3M 55S         0.102
    ##  7 6a       4S             0.002
    ##  8 6b       8S             0.003
    ##  9 6c       14S            0.006
    ## 10 7a       1M 37S         0.042
    ## # ... with 11 more rows
…
